%!PS-Adobe-3.0 EPSF-3.0
%%Creator: MATLAB, The Mathworks, Inc. Version 7.8.0.347 (R2009a). Operating System: Microsoft Windows Vista.
%%Title: C:\Users\anahita\Documents\MATLAB\eclipse_knn.eps
%%CreationDate: 07/23/2013  01:10:53
%%DocumentNeededFonts: Helvetica
%%DocumentProcessColors: Cyan Magenta Yellow Black
%%LanguageLevel: 2
%%Pages: 1
%%BoundingBox:    96   238   515   553
%%EndComments

%%BeginProlog
% MathWorks dictionary
/MathWorks 160 dict begin
% definition operators
/bdef {bind def} bind def
/ldef {load def} bind def
/xdef {exch def} bdef
/xstore {exch store} bdef
% operator abbreviations
/c  /clip ldef
/cc /concat ldef
/cp /closepath ldef
/gr /grestore ldef
/gs /gsave ldef
/mt /moveto ldef
/np /newpath ldef
/cm /currentmatrix ldef
/sm /setmatrix ldef
/rm /rmoveto ldef
/rl /rlineto ldef
/s {show newpath} bdef
/sc {setcmykcolor} bdef
/sr /setrgbcolor ldef
/sg /setgray ldef
/w /setlinewidth ldef
/j /setlinejoin ldef
/cap /setlinecap ldef
/rc {rectclip} bdef
/rf {rectfill} bdef
% page state control
/pgsv () def
/bpage {/pgsv save def} bdef
/epage {pgsv restore} bdef
/bplot /gsave ldef
/eplot {stroke grestore} bdef
% orientation switch
/portraitMode 0 def /landscapeMode 1 def /rotateMode 2 def
% coordinate system mappings
/dpi2point 0 def
% font control
/FontSize 0 def
/FMS {/FontSize xstore findfont [FontSize 0 0 FontSize neg 0 0]
  makefont setfont} bdef
/ISOLatin1Encoding where {pop /WindowsLatin1Encoding 256 array bdef
ISOLatin1Encoding WindowsLatin1Encoding copy pop
/.notdef/.notdef/quotesinglbase/florin/quotedblbase/ellipsis/dagger
/daggerdbl/circumflex/perthousand/Scaron/guilsinglleft/OE/.notdef/.notdef
/.notdef/.notdef/quoteleft/quoteright/quotedblleft/quotedblright/bullet
/endash/emdash/tilde/trademark/scaron/guilsinglright/oe/.notdef/.notdef
/Ydieresis WindowsLatin1Encoding 128 32 getinterval astore pop}
{/WindowsLatin1Encoding StandardEncoding bdef} ifelse
/reencode {exch dup where {pop load} {pop StandardEncoding} ifelse
  exch dup 3 1 roll findfont dup length dict begin
  { 1 index /FID ne {def}{pop pop} ifelse } forall
  /Encoding exch def currentdict end definefont pop} bdef
/isroman {findfont /CharStrings get /Agrave known} bdef
/FMSR {3 1 roll 1 index dup isroman {reencode} {pop pop} ifelse
  exch FMS} bdef
/csm {1 dpi2point div -1 dpi2point div scale neg translate
 dup landscapeMode eq {pop -90 rotate}
  {rotateMode eq {90 rotate} if} ifelse} bdef
% line types: solid, dotted, dashed, dotdash
/SO { [] 0 setdash } bdef
/DO { [.5 dpi2point mul 4 dpi2point mul] 0 setdash } bdef
/DA { [6 dpi2point mul] 0 setdash } bdef
/DD { [.5 dpi2point mul 4 dpi2point mul 6 dpi2point mul 4
  dpi2point mul] 0 setdash } bdef
% macros for lines and objects
/L {lineto stroke} bdef
/MP {3 1 roll moveto 1 sub {rlineto} repeat} bdef
/AP {{rlineto} repeat} bdef
/PDlw -1 def
/W {/PDlw currentlinewidth def setlinewidth} def
/PP {closepath eofill} bdef
/DP {closepath stroke} bdef
/MR {4 -2 roll moveto dup  0 exch rlineto exch 0 rlineto
  neg 0 exch rlineto closepath} bdef
/FR {MR stroke} bdef
/PR {MR fill} bdef
/L1i {{currentfile picstr readhexstring pop} image} bdef
/tMatrix matrix def
/MakeOval {newpath tMatrix currentmatrix pop translate scale
0 0 1 0 360 arc tMatrix setmatrix} bdef
/FO {MakeOval stroke} bdef
/PO {MakeOval fill} bdef
/PD {currentlinewidth 2 div 0 360 arc fill
   PDlw -1 eq not {PDlw w /PDlw -1 def} if} def
/FA {newpath tMatrix currentmatrix pop translate scale
  0 0 1 5 -2 roll arc tMatrix setmatrix stroke} bdef
/PA {newpath tMatrix currentmatrix pop	translate 0 0 moveto scale
  0 0 1 5 -2 roll arc closepath tMatrix setmatrix fill} bdef
/FAn {newpath tMatrix currentmatrix pop translate scale
  0 0 1 5 -2 roll arcn tMatrix setmatrix stroke} bdef
/PAn {newpath tMatrix currentmatrix pop translate 0 0 moveto scale
  0 0 1 5 -2 roll arcn closepath tMatrix setmatrix fill} bdef
/vradius 0 def /hradius 0 def /lry 0 def
/lrx 0 def /uly 0 def /ulx 0 def /rad 0 def
/MRR {/vradius xdef /hradius xdef /lry xdef /lrx xdef /uly xdef
  /ulx xdef newpath tMatrix currentmatrix pop ulx hradius add uly
  vradius add translate hradius vradius scale 0 0 1 180 270 arc 
  tMatrix setmatrix lrx hradius sub uly vradius add translate
  hradius vradius scale 0 0 1 270 360 arc tMatrix setmatrix
  lrx hradius sub lry vradius sub translate hradius vradius scale
  0 0 1 0 90 arc tMatrix setmatrix ulx hradius add lry vradius sub
  translate hradius vradius scale 0 0 1 90 180 arc tMatrix setmatrix
  closepath} bdef
/FRR {MRR stroke } bdef
/PRR {MRR fill } bdef
/MlrRR {/lry xdef /lrx xdef /uly xdef /ulx xdef /rad lry uly sub 2 div def
  newpath tMatrix currentmatrix pop ulx rad add uly rad add translate
  rad rad scale 0 0 1 90 270 arc tMatrix setmatrix lrx rad sub lry rad
  sub translate rad rad scale 0 0 1 270 90 arc tMatrix setmatrix
  closepath} bdef
/FlrRR {MlrRR stroke } bdef
/PlrRR {MlrRR fill } bdef
/MtbRR {/lry xdef /lrx xdef /uly xdef /ulx xdef /rad lrx ulx sub 2 div def
  newpath tMatrix currentmatrix pop ulx rad add uly rad add translate
  rad rad scale 0 0 1 180 360 arc tMatrix setmatrix lrx rad sub lry rad
  sub translate rad rad scale 0 0 1 0 180 arc tMatrix setmatrix
  closepath} bdef
/FtbRR {MtbRR stroke } bdef
/PtbRR {MtbRR fill } bdef
/stri 6 array def /dtri 6 array def
/smat 6 array def /dmat 6 array def
/tmat1 6 array def /tmat2 6 array def /dif 3 array def
/asub {/ind2 exch def /ind1 exch def dup dup
  ind1 get exch ind2 get sub exch } bdef
/tri_to_matrix {
  2 0 asub 3 1 asub 4 0 asub 5 1 asub
  dup 0 get exch 1 get 7 -1 roll astore } bdef
/compute_transform {
  dmat dtri tri_to_matrix tmat1 invertmatrix 
  smat stri tri_to_matrix tmat2 concatmatrix } bdef
/ds {stri astore pop} bdef
/dt {dtri astore pop} bdef
/db {2 copy /cols xdef /rows xdef mul dup 3 mul string
  currentfile 
  3 index 0 eq {/ASCIIHexDecode filter}
  {/ASCII85Decode filter 3 index 2 eq {/RunLengthDecode filter} if }
  ifelse exch readstring pop
  dup 0 3 index getinterval /rbmap xdef
  dup 2 index dup getinterval /gbmap xdef
  1 index dup 2 mul exch getinterval /bbmap xdef pop pop}bdef
/it {gs np dtri aload pop moveto lineto lineto cp c
  cols rows 8 compute_transform 
  rbmap gbmap bbmap true 3 colorimage gr}bdef
/il {newpath moveto lineto stroke}bdef
currentdict end def
%%EndProlog

%%BeginSetup
MathWorks begin

0 cap

end
%%EndSetup

%%Page: 1 1
%%BeginPageSetup
%%PageBoundingBox:    96   238   515   553
MathWorks begin
bpage
%%EndPageSetup

%%BeginObject: obj1
bplot

/dpi2point 12 def
portraitMode 1152 6636 csm

    0     0  5039  3780 rc
87 dict begin %Colortable dictionary
/c0 { 0.000000 0.000000 0.000000 sr} bdef
/c1 { 1.000000 1.000000 1.000000 sr} bdef
/c2 { 0.900000 0.000000 0.000000 sr} bdef
/c3 { 0.000000 0.820000 0.000000 sr} bdef
/c4 { 0.000000 0.000000 0.800000 sr} bdef
/c5 { 0.910000 0.820000 0.320000 sr} bdef
/c6 { 1.000000 0.260000 0.820000 sr} bdef
/c7 { 0.000000 0.820000 0.820000 sr} bdef
c0
1 j
1 sg
   0    0 5040 3781 rf
6 w
0 3081 3905 0 0 -3081 655 3364 4 MP
PP
-3905 0 0 3081 3905 0 0 -3081 655 3364 5 MP stroke
4 w
DO
SO
6 w
0 sg
 655  283 mt 4560  283 L
 655 3364 mt 4560 3364 L
4560 3364 mt 4560  283 L
 655 3364 mt  655  283 L
 655 3364 mt 4560 3364 L
 655 3364 mt  655  283 L
 655 3364 mt  655 3324 L
 655  283 mt  655  322 L
%%IncludeResource: font Helvetica
/Helvetica /WindowsLatin1Encoding 120 FMSR

 622 3509 mt 
(0) s
1436 3364 mt 1436 3324 L
1436  283 mt 1436  322 L
1353 3509 mt 
(0.2) s
2217 3364 mt 2217 3324 L
2217  283 mt 2217  322 L
2134 3509 mt 
(0.4) s
2998 3364 mt 2998 3324 L
2998  283 mt 2998  322 L
2915 3509 mt 
(0.6) s
3779 3364 mt 3779 3324 L
3779  283 mt 3779  322 L
3696 3509 mt 
(0.8) s
4560 3364 mt 4560 3324 L
4560  283 mt 4560  322 L
4527 3509 mt 
(1) s
 655 3364 mt  694 3364 L
4560 3364 mt 4520 3364 L
 554 3408 mt 
(0) s
 655 3055 mt  694 3055 L
4560 3055 mt 4520 3055 L
 454 3099 mt 
(0.1) s
 655 2747 mt  694 2747 L
4560 2747 mt 4520 2747 L
 454 2791 mt 
(0.2) s
 655 2439 mt  694 2439 L
4560 2439 mt 4520 2439 L
 454 2483 mt 
(0.3) s
 655 2131 mt  694 2131 L
4560 2131 mt 4520 2131 L
 454 2175 mt 
(0.4) s
 655 1823 mt  694 1823 L
4560 1823 mt 4520 1823 L
 454 1867 mt 
(0.5) s
 655 1515 mt  694 1515 L
4560 1515 mt 4520 1515 L
 454 1559 mt 
(0.6) s
 655 1207 mt  694 1207 L
4560 1207 mt 4520 1207 L
 454 1251 mt 
(0.7) s
 655  899 mt  694  899 L
4560  899 mt 4520  899 L
 454  943 mt 
(0.8) s
 655  591 mt  694  591 L
4560  591 mt 4520  591 L
 454  635 mt 
(0.9) s
 655  283 mt  694  283 L
4560  283 mt 4520  283 L
 554  327 mt 
(1) s
 655  283 mt 4560  283 L
 655 3364 mt 4560 3364 L
4560 3364 mt 4560  283 L
 655 3364 mt  655  283 L
gs 655 283 3906 3082 rc
/c8 { 0.000000 1.000000 1.000000 sr} bdef
c8
0 236 -2 88 -113 2389 -1 1 -1 0 -1 0 -2 0 0 0 
-2 2 -1 2 0 1 -1 1 -1 3 -1 0 0 3 -3 0 
-3 0 -3 0 -3 0 -1 1 -4 2 -1 1 -13 0 -13 0 
-13 0 -11 0 -23 0 -12 0 -11 0 -10 0 -36 0 -28 0 
-9 0 -8 0 -63 0 -120 0 -60 0 -58 0 -59 0 -58 0 
-57 0 -61 1 -66 2 -68 0 -67 0 -66 0 -64 0 -63 0 
-62 0 -61 0 -60 0 -57 0 -2027 339 -101 3 -12 0 -6 1 
-1 0 -2 0 -2 0 -4 0 -3 0 -2 0 -2 0 -1 0 
-3 0 -3 0 -2 0 -4 0 -2 0 -1 0 -10 0 -9 0 
-8 0 -7 0 -7 0 -7 0 -6 0 -6 0 -4 0 -3 0 
-21 0 -9 0 -8 0 -8 0 -21 0 -11 0 -9 1 -10 1 
-62 0 4560 283 90 MP stroke
/c9 { 0.000000 1.000000 0.000000 sr} bdef
c9
0 200 -130 2428 0 1 -2 2 -1 0 -10 0 -10 0 -19 0 
-8 0 -8 0 -16 0 -7 0 -3297 448 -148 0 -58 0 -23 0 
-14 0 -7 1 -1 0 -1 0 -2 0 -1 0 -3 0 -2 0 
-2 0 -3 0 -2 0 -3 0 -5 0 -4 0 -1 0 -1 0 
-2 0 -1 0 -2 0 -3 0 -5 0 -3 0 -1 0 -1 0 
-20 0 -10 0 -10 0 -10 0 -10 0 -8 0 -17 0 -8 0 
-5 0 4560 283 50 MP stroke
/c10 { 0.000000 0.000000 1.000000 sr} bdef
c10
0 161 -155 2446 -3750 474 4560 283 4 MP stroke
0 sg
0 168 -160 2530 -3708 383 -13 0 -2 0 -1 0 -2 0 -1 0 
-1 0 -1 0 -2 0 -2 0 -1 0 -2 0 -4 0 -4 0 
-1 0 4560 283 18 MP stroke
/c11 { 1.000000 0.000000 0.000000 sr} bdef
c11
0 285 -127 2418 -1 3 0 0 -2 2 -2 0 -1 0 -18 0 
-17 0 -17 0 -17 0 -16 0 -17 0 -14 0 -30 0 -3036 366 
-150 1 -54 2 -33 0 -23 1 -11 1 -10 0 -3 0 -1 0 
-2 0 -1 0 -1 0 -4 0 -1 1 0 1 -3 0 -4 0 
-1 0 -2 0 -6 0 -1 0 -3 0 -3 0 -2 0 -6 0 
-2 0 -2 0 -2 0 -1 0 -5 0 -1 0 -3 0 -14 0 
-6 0 -10 0 -2 0 -6 0 -1 0 -2 0 -3 0 -1 0 
-16 0 -23 0 -22 0 -19 0 -37 0 -19 0 -17 0 -18 0 
-16 0 -17 0 4560 283 67 MP stroke
DA
0 sg
3905 -3081 655 3364 2 MP stroke
gr

DA
 372 2307 mt  -90 rotate
(True Positive Rate) s
90 rotate
2097 3652 mt 
(False Positive Rate) s
 638 3407 mt 
( ) s
4544  325 mt 
( ) s
SO
1 sg
0 918 1739 0 0 -918 2762 3305 4 MP
PP
-1739 0 0 918 1739 0 0 -918 2762 3305 5 MP stroke
4 w
DO
SO
6 w
0 sg
2762 2387 mt 4501 2387 L
2762 3305 mt 4501 3305 L
4501 3305 mt 4501 2387 L
2762 3305 mt 2762 2387 L
2762 3305 mt 4501 3305 L
2762 3305 mt 2762 2387 L
2762 2387 mt 4501 2387 L
2762 3305 mt 4501 3305 L
4501 3305 mt 4501 2387 L
2762 3305 mt 2762 2387 L
3236 2521 mt 
(No context) s
gs 2762 2387 1740 919 rc
c8
365 0 2834 2478 2 MP stroke
gr

c8
0 sg
3236 2668 mt 
(Architecture) s
gs 2762 2387 1740 919 rc
c9
365 0 2834 2625 2 MP stroke
gr

c9
0 sg
3236 2815 mt 
(NFR) s
gs 2762 2387 1740 919 rc
c10
365 0 2834 2772 2 MP stroke
gr

c10
0 sg
3236 2962 mt 
(Random English words) s
gs 2762 2387 1740 919 rc
365 0 2834 2919 2 MP stroke
gr

3236 3109 mt 
(LDA) s
gs 2762 2387 1740 919 rc
c11
365 0 2834 3066 2 MP stroke
gr

c11
0 sg
3236 3256 mt 
(Base line) s
gs 2762 2387 1740 919 rc
DA
365 0 2834 3213 2 MP stroke
SO
gr


end %%Color Dict

eplot
%%EndObject

epage
end

showpage

%%Trailer
%%EOF
