<?xml version="1.0" encoding="UTF-8" standalone="no"?>
<!-- Created with Inkscape (http://www.inkscape.org/) -->

<svg
   xmlns:dc="http://purl.org/dc/elements/1.1/"
   xmlns:cc="http://creativecommons.org/ns#"
   xmlns:rdf="http://www.w3.org/1999/02/22-rdf-syntax-ns#"
   xmlns:svg="http://www.w3.org/2000/svg"
   xmlns="http://www.w3.org/2000/svg"
   xmlns:sodipodi="http://sodipodi.sourceforge.net/DTD/sodipodi-0.dtd"
   xmlns:inkscape="http://www.inkscape.org/namespaces/inkscape"
   width="160.97421"
   height="94.713776"
   id="svg3564"
   version="1.1"
   inkscape:version="0.48.4 r9939"
   sodipodi:docname="New document 5">
  <defs
     id="defs3566" />
  <sodipodi:namedview
     inkscape:document-units="in"
     pagecolor="#ffffff"
     bordercolor="#666666"
     borderopacity="1.0"
     inkscape:pageopacity="0.0"
     inkscape:pageshadow="2"
     inkscape:zoom="0.36"
     inkscape:cx="-4.1820359"
     inkscape:cy="-188.75498"
     inkscape:current-layer="layer1"
     id="namedview3568"
     showgrid="false"
     units="in"
     fit-margin-top="0"
     fit-margin-left="0"
     fit-margin-right="0"
     fit-margin-bottom="0"
     inkscape:window-width="513"
     inkscape:window-height="406"
     inkscape:window-x="2"
     inkscape:window-y="83"
     inkscape:window-maximized="0" />
  <metadata
     id="metadata3570">
    <rdf:RDF>
      <cc:Work
         rdf:about="">
        <dc:format>image/svg+xml</dc:format>
        <dc:type
           rdf:resource="http://purl.org/dc/dcmitype/StillImage" />
        <dc:title></dc:title>
      </cc:Work>
    </rdf:RDF>
  </metadata>
  <g
     inkscape:label="Layer 1"
     inkscape:groupmode="layer"
     id="layer1"
     transform="translate(-344.18204,-206.53125)">
    <path
       style="fill:#000000;fill-rule:evenodd;stroke:#000000;stroke-width:1px;stroke-linecap:butt;stroke-linejoin:miter;stroke-opacity:1"
       d="m 408.99611,222.17966 c -7.39258,13.91554 4.20115,31.75422 2.15589,35.84474 -3.63735,7.2747 -7.86592,9.59678 -10.5094,17.5272 -2.431,10.39407 2.78806,20.7872 5.91918,21.28094 5.05961,2.5298 12.04625,2.14959 17.5272,3.24578 4.33561,0.86712 8.97381,0.64915 13.63226,0.64915 4.5082,0 7.77435,-2.5811 10.3865,-5.19324 2.20291,-6.71166 0.95778,-13.0193 -3.73264,-22.55815 -0.79547,-3.03958 -6.22561,-14.58822 -10.54879,-16.55347 -2.56156,-3.41541 6.91932,-16.66415 2.10976,-30.51031 -13.2384,-12.84482 -16.51126,-12.85724 -26.93996,-3.73264 z"
       id="path8726"
       sodipodi:nodetypes="csccssccccc"
       inkscape:connector-curvature="0" />
    <path
       style="fill:#ffff00;fill-rule:evenodd;stroke:#000000;stroke-width:1px;stroke-linecap:butt;stroke-linejoin:miter;stroke-opacity:1"
       d="m 416.78598,238.89542 c -2.64805,-1.98604 6.49155,1.29831 9.73733,1.94746 5.9943,1.19886 7.05642,2.68091 3.24578,6.49156 -2.65964,2.65964 -5.89138,5.22997 -8.43902,7.14071 -3.32151,2.49113 -4.7615,-3.03144 -5.8424,-5.19325 -1.18049,-2.36097 -3.81999,-4.46914 -5.19324,-5.8424 -2.24001,-2.24 4.05437,-2.59434 6.49155,-4.54408 z"
       id="path8728"
       inkscape:connector-curvature="0" />
    <path
       style="fill:#f9f9f9;fill-rule:evenodd;stroke:#000000;stroke-width:1px;stroke-linecap:butt;stroke-linejoin:miter;stroke-opacity:1"
       d="m 411.10587,281.90196 c 1.57196,-3.14393 3.25377,-5.85838 4.54409,-8.43902 1.88991,-3.77983 3.56891,-4.94945 7.14071,-5.8424 3.89195,-0.97299 6.77102,0.78889 9.08817,1.94747 1.7461,0.87305 3.49986,10.75364 3.89494,12.33395 0.32422,3.26513 2.34753,15.67665 -1.78996,16.60916 -3.32246,0.83061 -7.81341,1.45157 -11.34391,0.0394 -2.96828,-1.18731 -6.96336,-0.89986 -10.23573,-1.71795 -7.64406,-0.47778 -3.31181,-8.93491 -1.29831,-14.93058 z"
       id="path8730"
       sodipodi:nodetypes="csssccscc"
       inkscape:connector-curvature="0" />
    <path
       sodipodi:type="arc"
       style="fill:#f9f9f9;fill-opacity:1;fill-rule:nonzero;stroke:#000000;stroke-width:3.54330707;stroke-linecap:butt;stroke-linejoin:miter;stroke-miterlimit:4;stroke-opacity:1;stroke-dasharray:none;stroke-dashoffset:0"
       id="path8732"
       sodipodi:cx="81.469009"
       sodipodi:cy="117.49714"
       sodipodi:rx="7.4652882"
       sodipodi:ry="7.789866"
       d="m 88.934298,117.49714 c 0,4.30222 -3.342324,7.78986 -7.465289,7.78986 -4.122964,0 -7.465288,-3.48764 -7.465288,-7.78986 0,-4.30223 3.342324,-7.78987 7.465288,-7.78987 4.122965,0 7.465289,3.48764 7.465289,7.78987 z"
       transform="translate(332.07119,114.90671)" />
    <path
       sodipodi:type="arc"
       style="fill:#f9f9f9;fill-opacity:1;fill-rule:nonzero;stroke:#000000;stroke-width:3.54330707;stroke-linecap:butt;stroke-linejoin:miter;stroke-miterlimit:4;stroke-opacity:1;stroke-dasharray:none;stroke-dashoffset:0"
       id="path8734"
       sodipodi:cx="81.469009"
       sodipodi:cy="117.49714"
       sodipodi:rx="7.4652882"
       sodipodi:ry="7.789866"
       d="m 88.934298,117.49714 c 0,4.30222 -3.342324,7.78986 -7.465289,7.78986 -4.122964,0 -7.465288,-3.48764 -7.465288,-7.78986 0,-4.30223 3.342324,-7.78987 7.465288,-7.78987 4.122965,0 7.465289,3.48764 7.465289,7.78987 z"
       transform="translate(347.48864,114.90672)" />
    <g
       id="g8812"
       transform="translate(246.86954,-582.31334)">
      <path
         transform="translate(-4.149475e-6,698.0315)"
         id="path8760"
         d="m 120.49334,101.4659 c 0.73215,1.22026 -2.17948,-2.0621 -2.52462,-3.442663 -0.27597,-1.103852 -0.45903,-2.432774 -0.45903,-3.442666 0,-0.389282 -2.11747,1.939843 -2.29511,2.295111 -0.67207,1.344156 -0.45902,3.093685 -0.45902,4.590218 0,1.5276 1.09734,2.48696 2.0656,3.21316 0.18104,0.13578 0.32507,0.48761 0.45902,0.68853"
         style="fill:#ff0000;fill-rule:evenodd;stroke:#000000;stroke-width:1px;stroke-linecap:butt;stroke-linejoin:miter;stroke-opacity:1"
         inkscape:connector-curvature="0" />
      <path
         id="path8762"
         d="m 141.14933,800.18594 c 0.76709,0.57531 2.41622,-2.0783 2.75414,-2.75414 0.78669,-1.57339 -1.50139,-3.47374 0.45902,-2.98364 0.65387,0.16347 1.39684,2.56417 1.60658,2.98364 0.39226,0.78452 0,2.75571 0,3.67218 0,0.86661 -1.13192,1.30796 -1.83609,1.83609"
         style="fill:#ff0000;fill-rule:evenodd;stroke:#000000;stroke-width:1px;stroke-linecap:butt;stroke-linejoin:miter;stroke-opacity:1"
         inkscape:connector-curvature="0" />
      <path
         id="path8784"
         d="m 138.24789,857.33407 c 0,0.72632 0,2.94859 0,4.36071 0,1.2592 -0.22721,3.43346 -0.45902,4.36071 -0.50839,2.03356 1.85632,1.32712 2.75413,1.14756 1.79901,-0.35981 2.89249,-0.29869 4.1312,-0.91805 1.13096,-0.56548 2.87443,1.38815 3.21315,2.0656 0.82455,1.64909 -1.51135,3.05079 -2.29511,3.44267 -1.44859,0.7243 -3.19158,0.68853 -4.81973,0.68853 -1.75861,0 -3.71355,-0.29723 -5.27876,-0.68853 -1.39218,-0.34805 -1.97636,-0.12742 -1.60657,-1.60658 0.7491,-2.99642 1.55863,-6.13865 2.0656,-9.18044 0.28328,-1.69972 0.0765,-2.21859 0.68853,-3.44267"
         style="fill:#000000;fill-rule:evenodd;stroke:#000000;stroke-width:1px;stroke-linecap:butt;stroke-linejoin:miter;stroke-opacity:1"
         inkscape:connector-curvature="0" />
      <path
         sodipodi:nodetypes="cssssssssccccsssssc"
         transform="translate(-4.149475e-6,698.0315)"
         id="path8768"
         d="m 124.39503,129.92528 c -0.14487,0.72435 -0.76526,3.06105 -1.14756,4.59023 -0.33826,1.35305 -0.22951,2.8836 -0.22951,4.36071 0,2.06793 -0.72001,2.58757 -1.60658,4.36071 -0.84843,1.69686 -2.04597,3.27885 -2.75413,5.04924 -0.60232,1.5058 -0.6042,3.55049 -0.22951,5.04925 0.50884,2.03537 0.95322,3.03055 2.29511,4.81973 1.2605,1.68066 4.24313,1.90438 6.1968,2.29511 2.63262,0.52653 5.54216,0.68854 8.2624,0.68854 2.26707,0 2.14557,0.0748 4.1312,-0.91805 1.9152,-0.48111 1.581,-1.02201 2.75413,-2.52462 1.63686,-3.21802 1.31065,-3.89004 0.45903,-7.34435 -0.61794,-2.23882 -0.15216,-4.69082 -2.06561,-5.50827 -1.74086,-0.87043 -2.2951,-1.94847 -2.2951,-3.90169 0,-1.03653 0.22951,-2.4753 0.22951,-3.67218 0,-1.7028 -0.33169,-2.93334 -0.68854,-4.36071 -0.0765,-0.30602 -0.153,-0.61203 -0.22951,-0.91805 -0.36488,-1.45951 -0.87614,-2.89983 -1.60658,-4.36071 -0.4417,-0.8834 -0.34113,-0.80016 -0.91804,-1.37706"
         style="fill:#ff0000;fill-rule:evenodd;stroke:#000000;stroke-width:1px;stroke-linecap:butt;stroke-linejoin:miter;stroke-opacity:1"
         inkscape:connector-curvature="0" />
      <path
         sodipodi:nodetypes="czsssssssssssssssssssssss"
         transform="translate(-4.149475e-6,698.0315)"
         id="path8752"
         d="m 133.80498,97.334704 c -1.41074,-1.058051 -7.2187,1.632542 -8.95093,2.0656 -1.73223,0.433058 -2.67822,0.872496 -3.90169,1.606576 -1.47128,0.88277 -2.06101,2.29053 -3.21315,3.44267 -1.06404,1.06404 -1.67432,2.8896 -2.29512,4.1312 -0.5722,1.14441 -0.7588,2.92982 -1.14755,3.90169 -0.38181,0.95451 -0.44802,2.02158 -0.68853,2.98364 -0.17352,0.69405 -1.35588,1.8149 -1.83609,2.29511 -1.06148,1.06148 -0.91805,2.90356 -0.91805,4.36072 0,1.70807 0.92305,2.75813 2.0656,3.67217 1.54884,1.23908 4.3674,1.79287 6.1968,2.52463 2.7378,1.09512 5.85086,1.72099 8.72142,2.29511 2.72712,0.54542 5.23173,0.68853 8.03289,0.68853 2.10885,0 3.95116,-0.64352 5.96729,-1.14756 1.52077,-0.38019 2.83736,-0.76671 4.36071,-1.14755 1.56967,-0.39242 3.08873,-1.51325 4.1312,-2.29511 0.90629,-0.67972 1.31583,-1.0659 2.0656,-2.0656 0.76443,-1.01924 1.21932,-2.00808 0.91805,-3.21316 -0.4753,-1.9012 -0.73568,-3.42903 -1.60658,-4.59022 -0.74452,-0.9927 -0.89158,-1.27122 -1.37707,-3.21316 -0.36528,-1.46114 -2.04241,-3.10573 -2.98364,-4.36071 -1.07487,-1.43316 -1.76706,-2.45559 -2.75413,-3.44266 -1.20181,-1.20182 -1.84952,-2.53806 -2.98365,-3.67218 -0.90609,-0.9061 -1.92329,-1.53543 -2.98364,-2.0656 -1.58832,-0.794161 -3.409,-1.696085 -4.81974,-2.754136 z"
         style="fill:#ff0000;fill-rule:evenodd;stroke:#000000;stroke-width:1px;stroke-linecap:butt;stroke-linejoin:miter;stroke-opacity:1"
         inkscape:connector-curvature="0" />
      <path
         transform="translate(-4.149475e-6,698.0315)"
         id="path8744"
         d="m 115.67361,114.54804 c 0.56881,-1.13635 2.11892,-3.54932 2.98364,-5.27876 1.2387,-2.47739 2.1328,-3.86922 4.59022,-4.36071 1.73057,-0.34611 4.3475,1.21525 5.27876,1.83609 0.61937,0.41292 0.45902,3.13206 0.45902,4.1312 0,1.85826 -0.34966,3.45345 -1.14756,5.04924 -0.81343,1.62687 -1.93879,1.40275 -3.67217,1.83609 -1.52761,0.38191 -3.87214,-0.33687 -5.27876,-0.68853 -1.44873,-0.36218 -2.96065,-0.43602 -3.90169,-1.37707 -0.31543,-0.31543 0.45902,-0.76503 0.68854,-1.14755 z"
         style="fill:#ffffff;fill-rule:evenodd;stroke:#000000;stroke-width:1px;stroke-linecap:butt;stroke-linejoin:miter;stroke-opacity:1"
         inkscape:connector-curvature="0" />
      <path
         transform="translate(-4.149475e-6,698.0315)"
         id="path8746"
         d="m 123.24747,110.64635 c -0.86326,-0.86326 -2.0656,1.94363 -2.0656,2.98364 0,1.44594 1.45514,1.74085 2.75414,2.0656 1.88508,0.47128 2.4923,-1.21549 2.75413,-2.52462 0.20352,-1.01762 -1.15014,-2.30028 -1.60658,-3.21315 -0.42731,-0.85462 -1.76895,0.63482 -1.83609,0.68853 z"
         style="fill:#000000;fill-rule:evenodd;stroke:#000000;stroke-width:1px;stroke-linecap:butt;stroke-linejoin:miter;stroke-opacity:1"
         inkscape:connector-curvature="0" />
      <path
         id="path8748"
         d="m 148.12152,812.7794 c -0.56881,-1.13635 -2.11892,-3.54932 -2.98364,-5.27876 -1.2387,-2.47739 -2.1328,-3.86922 -4.59022,-4.36071 -1.73057,-0.34611 -4.3475,1.21525 -5.27876,1.83609 -0.61937,0.41292 -0.45902,3.13206 -0.45902,4.1312 0,1.85826 0.34966,3.45345 1.14756,5.04924 0.81343,1.62687 1.93879,1.40275 3.67217,1.83609 1.52761,0.38191 3.87214,-0.33687 5.27876,-0.68853 1.44873,-0.36218 2.96065,-0.43602 3.90169,-1.37707 0.31543,-0.31543 -0.45902,-0.76503 -0.68854,-1.14755 z"
         style="fill:#ffffff;fill-rule:evenodd;stroke:#000000;stroke-width:1px;stroke-linecap:butt;stroke-linejoin:miter;stroke-opacity:1"
         inkscape:connector-curvature="0" />
      <path
         id="path8750"
         d="m 140.54766,808.87771 c 0.86326,-0.86326 2.0656,1.94363 2.0656,2.98364 0,1.44594 -1.45514,1.74085 -2.75414,2.0656 -1.88508,0.47128 -2.4923,-1.21549 -2.75413,-2.52462 -0.20352,-1.01762 1.15014,-2.30028 1.60658,-3.21315 0.42731,-0.85462 1.76895,0.63482 1.83609,0.68853 z"
         style="fill:#000000;fill-rule:evenodd;stroke:#000000;stroke-width:1px;stroke-linecap:butt;stroke-linejoin:miter;stroke-opacity:1"
         inkscape:connector-curvature="0" />
      <path
         transform="translate(-4.149475e-6,698.0315)"
         id="path8754"
         d="m 116.59165,119.36777 c 0.90368,0.8935 2.05562,2.79406 1.60658,4.59022 -0.14362,0.57448 -0.45894,0.45894 -0.68854,0.68854"
         style="fill:none;stroke:#000000;stroke-width:1px;stroke-linecap:butt;stroke-linejoin:miter;stroke-opacity:1"
         inkscape:connector-curvature="0" />
      <path
         transform="translate(-4.149475e-6,698.0315)"
         id="path8756"
         d="m 118.42774,122.35142 c -0.42312,1.69246 3.42947,0.72915 5.04924,1.37706 1.37386,0.54955 3.7018,0.45903 5.27876,0.45903 1.67219,0 2.72343,0.45902 4.36071,0.45902 1.3537,0 2.91878,0.22951 4.36071,0.22951 1.68308,0 3.36616,0 5.04925,0 1.91426,0 2.36127,-0.83637 3.90169,-1.60658 0.24226,-0.12113 0.81488,-0.40744 0.91804,-0.45902"
         style="fill:none;stroke:#000000;stroke-width:1px;stroke-linecap:butt;stroke-linejoin:miter;stroke-opacity:1"
         inkscape:connector-curvature="0" />
      <path
         transform="translate(-4.149475e-6,698.0315)"
         id="path8758"
         d="m 148.4937,118.90875 c 0.10958,-0.0548 -2.36615,2.02372 -0.68854,4.81973 0.51854,0.86424 0.79037,1.70841 1.37707,2.29511"
         style="fill:none;stroke:#000000;stroke-width:1px;stroke-linecap:butt;stroke-linejoin:miter;stroke-opacity:1"
         inkscape:connector-curvature="0" />
      <path
         transform="translate(-4.149475e-6,698.0315)"
         id="path8764"
         d="m 129.90329,115.9251 c -1.06872,0.33969 -1.77133,1.80658 -2.0656,2.98365 -0.36894,1.47578 0.84395,1.9897 2.0656,2.29511 0.30602,0.0765 0.61203,0.15301 0.91805,0.22951 1.73976,0.43494 3.01843,-0.2643 3.90169,-1.14755 0.10819,-0.1082 0,-0.30602 0,-0.45903"
         style="fill:none;stroke:#000000;stroke-width:1px;stroke-linecap:butt;stroke-linejoin:miter;stroke-opacity:1"
         inkscape:connector-curvature="0" />
      <path
         transform="translate(-4.149475e-6,698.0315)"
         id="path8770"
         d="m 124.62454,145.99106 c -0.57023,-1.14045 3.59463,-3.72283 4.81973,-4.1312 1.99634,-0.66544 2.61151,-0.83115 3.67218,0.22951 0.88711,0.88711 1.85472,1.16619 2.75413,2.0656 0.2549,0.2549 0.7302,0.3651 0.91805,0.45903"
         style="fill:none;stroke:#000000;stroke-width:1px;stroke-linecap:butt;stroke-linejoin:miter;stroke-opacity:1"
         inkscape:connector-curvature="0" />
      <path
         transform="translate(-4.149475e-6,698.0315)"
         id="path8772"
         d="m 123.01796,134.97453 c 0.14402,0.14402 -3.35815,0.68853 -4.36071,0.68853 -1.45321,0 -2.44656,0 -3.90169,0 -1.46814,0 -2.91895,-0.45902 -4.36071,-0.45902 -1.62035,0 -3.24904,-0.10578 -4.59022,0.22951 -1.79214,0.44803 -2.38718,1.79071 -3.21316,3.44267 -0.81265,1.62529 0.37612,4.83457 0.91805,5.73778 0.16983,0.28305 4.84686,-1.72812 5.27875,-1.83609 1.29288,-0.32322 1.74569,-0.89545 2.75414,-1.14756 1.22244,-0.30561 2.79674,-0.92657 3.90168,-1.14756 1.67103,-0.3342 3.38615,-0.73178 5.04925,-1.14755 1.51188,-0.37797 4.27501,-1.18351 5.04924,-1.37707"
         style="fill:#ff0000;fill-rule:evenodd;stroke:#000000;stroke-width:1px;stroke-linecap:butt;stroke-linejoin:miter;stroke-opacity:1"
         inkscape:connector-curvature="0" />
      <path
         transform="translate(-4.149475e-6,698.0315)"
         id="path8774"
         d="m 106.03414,140.02377 c 0.66901,-0.16725 0.68853,-3.36712 0.68853,-4.59022 0,-2.0428 -0.45902,-3.91341 -0.45902,-5.96729 0,-1.79998 -1.14756,-3.17563 -1.14756,-5.04924 0,-1.83609 0,-3.67218 0,-5.50827 0,-1.36583 -0.22951,-2.87221 -0.22951,-4.59022 0,-3.07656 -0.39515,-2.26956 -2.75413,-3.21316 -1.88883,-0.75553 -3.129923,-1.89913 -3.90169,-3.44267 -0.783159,-1.56631 0.288427,-3.7777 0,-5.50826 -0.18002,-1.08012 -0.0818,-2.229202 -0.459022,-2.983647"
         style="fill:none;stroke:#000000;stroke-width:1px;stroke-linecap:butt;stroke-linejoin:miter;stroke-opacity:1"
         inkscape:connector-curvature="0" />
      <path
         transform="translate(-4.149475e-6,698.0315)"
         id="path8776"
         d="m 104.88658,111.7939 c -0.2429,-1.45742 2.94918,-0.72005 4.1312,-1.60657 1.64384,-1.23288 1.7041,-3.47125 2.0656,-5.27876 0.32611,-1.63054 -0.45902,-2.75933 -0.45902,-4.36071 0,-0.17107 -0.15301,-0.30602 -0.22951,-0.45902"
         style="fill:none;stroke:#000000;stroke-width:1px;stroke-linecap:butt;stroke-linejoin:miter;stroke-opacity:1"
         inkscape:connector-curvature="0" />
      <path
         transform="translate(-4.149475e-6,698.0315)"
         id="path8778"
         d="m 103.96854,99.629815 c 0,-1.233585 0.45902,2.438595 0.45902,3.672175 0,1.9687 0.22951,3.81107 0.22951,5.73778 0,1.17475 -0.18392,2.11276 -0.45902,3.21316"
         style="fill:none;stroke:#000000;stroke-width:1px;stroke-linecap:butt;stroke-linejoin:miter;stroke-opacity:1"
         inkscape:connector-curvature="0" />
      <path
         transform="translate(-4.149475e-6,698.0315)"
         id="path8780"
         d="m 106.26365,143.69595 c 0,1.12779 -0.22951,4.00365 -0.22951,5.96729 0,2.03928 0.68853,3.9192 0.68853,5.96729 0,1.60494 -0.22951,2.40621 -0.22951,3.90169 0,0.74061 -0.15984,0.95901 -0.22951,1.37706"
         style="fill:none;stroke:#000000;stroke-width:1px;stroke-linecap:butt;stroke-linejoin:miter;stroke-opacity:1"
         inkscape:connector-curvature="0" />
      <path
         transform="translate(-4.149475e-6,698.0315)"
         id="path8782"
         d="m 123.24747,159.53222 c 0,0.72632 0,2.94859 0,4.36071 0,1.2592 0.22721,3.43346 0.45902,4.36071 0.50839,2.03356 -1.85632,1.32712 -2.75413,1.14756 -1.79901,-0.35981 -2.89249,-0.29869 -4.1312,-0.91805 -1.13096,-0.56548 -2.87443,1.38815 -3.21315,2.0656 -0.82455,1.64909 1.51135,3.05079 2.29511,3.44267 1.44859,0.7243 3.19158,0.68853 4.81973,0.68853 1.75861,0 3.71355,-0.29723 5.27876,-0.68853 1.39218,-0.34805 1.97636,-0.12742 1.60657,-1.60658 -0.7491,-2.99642 -1.55863,-6.13865 -2.0656,-9.18044 -0.28328,-1.69972 -0.0765,-2.21859 -0.68853,-3.44267"
         style="fill:#000000;fill-rule:evenodd;stroke:#000000;stroke-width:1px;stroke-linecap:butt;stroke-linejoin:miter;stroke-opacity:1"
         inkscape:connector-curvature="0" />
      <path
         inkscape:transform-center-y="8.6932073"
         inkscape:transform-center-x="-7.9897732"
         id="path8786"
         d="m 137.94941,831.79592 c -0.19613,0.0549 2.58933,2.24647 3.46314,2.73799 1.26658,0.71244 2.13236,1.19944 3.40062,1.91283 1.2796,0.71977 2.76913,1.03097 4.02573,1.7378 1.41226,0.79439 2.88365,1.50068 3.88822,2.45043 1.34233,1.26911 1.2027,2.73108 1.11271,4.57584 -0.0885,1.81497 -2.698,4.0293 -3.61314,4.55083 -0.28679,0.16344 -3.37719,-3.8824 -3.70068,-4.18824 -0.96838,-0.91556 -1.0825,-1.6363 -1.83785,-2.35043 -0.91562,-0.86568 -1.98331,-2.1787 -2.83801,-2.91302 -1.29259,-1.11052 -2.59253,-2.29789 -3.83822,-3.47561 -1.13241,-1.07065 -3.14577,-3.12738 -3.72568,-3.67566"
         style="fill:#ff0000;fill-rule:evenodd;stroke:#000000;stroke-width:1px;stroke-linecap:butt;stroke-linejoin:miter;stroke-opacity:1"
         inkscape:connector-curvature="0" />
    </g>
    <path
       sodipodi:type="arc"
       style="fill:#000000;fill-opacity:1;fill-rule:nonzero;stroke:#000000;stroke-width:3.54330707;stroke-linecap:butt;stroke-linejoin:miter;stroke-miterlimit:4;stroke-opacity:1;stroke-dasharray:none;stroke-dashoffset:0"
       id="path8788"
       sodipodi:cx="166.51031"
       sodipodi:cy="120.63008"
       sodipodi:rx="1.2623112"
       sodipodi:ry="1.4918222"
       d="m 167.77263,120.63008 c 0,0.82391 -0.56516,1.49182 -1.26232,1.49182 -0.69715,0 -1.26231,-0.66791 -1.26231,-1.49182 0,-0.82391 0.56516,-1.49182 1.26231,-1.49182 0.69716,0 1.26232,0.66791 1.26232,1.49182 z"
       transform="translate(247.09904,112.27549)" />
    <path
       sodipodi:type="arc"
       style="fill:#000000;fill-opacity:1;fill-rule:nonzero;stroke:#000000;stroke-width:3.54330707;stroke-linecap:butt;stroke-linejoin:miter;stroke-miterlimit:4;stroke-opacity:1;stroke-dasharray:none;stroke-dashoffset:0"
       id="path8790"
       sodipodi:cx="166.51031"
       sodipodi:cy="120.63008"
       sodipodi:rx="1.2623112"
       sodipodi:ry="1.4918222"
       d="m 167.77263,120.63008 c 0,0.82391 -0.56516,1.49182 -1.26232,1.49182 -0.69715,0 -1.26231,-0.66791 -1.26231,-1.49182 0,-0.82391 0.56516,-1.49182 1.26231,-1.49182 0.69716,0 1.26232,0.66791 1.26232,1.49182 z"
       transform="translate(262.59105,112.16074)" />
    <path
       style="fill:#ff0000;fill-rule:evenodd;stroke:#000000;stroke-width:1px;stroke-linecap:butt;stroke-linejoin:miter;stroke-opacity:1"
       d="m 467.88875,212.59384 c -0.97688,0.0494 -3.13998,-0.91804 -5.04924,-0.91804 -1.547,0 -2.96808,-0.45903 -4.59023,-0.45903 -1.85658,0 -3.13257,0.17783 -4.81973,0.45903 -1.46565,0.24427 -2.51766,1.19971 -3.67218,2.0656 -1.17096,0.87822 -2.74415,1.36958 -3.67218,2.0656 -1.237,0.92775 -2.02429,2.44199 -2.75414,3.90169 -0.78259,1.56518 -1.16254,2.81407 -1.60658,4.59022 -0.52521,2.10086 -0.22951,5.16926 -0.22951,7.34435 0,1.87432 -0.0743,1.5323 0.91805,2.52463 0.75554,0.75554 1.14154,2.04156 1.37706,2.98364 0.34112,1.36449 3.3968,0.33967 3.67219,0.22951 1.68857,-0.67543 3.33757,-2.06946 5.04924,-2.75413 1.22703,-0.49081 2.92862,-0.12851 4.36072,0.22951 1.21164,0.30291 2.88797,0.45902 4.36071,0.45902 1.31945,0 2.36238,0.47024 3.67218,0.68854 1.59813,0.26635 2.26006,1.09894 3.90168,0.68853 0.56306,-0.14076 2.25729,-2.44896 2.52463,-2.98364 0.9428,-1.88562 1.26296,-3.4466 1.60657,-5.50827 0.24028,-1.44166 0,-3.11799 0,-4.59022 0,-1.47144 -1.21371,-3.34548 -1.83608,-4.59023 -0.78187,-1.56372 -1.50382,-3.00764 -2.29512,-4.59022 -1.4823,-2.96462 1.94489,2.93547 -0.91804,-1.83609 z"
       id="path8841"
       inkscape:connector-curvature="0" />
    <path
       style="fill:#0000ff;fill-rule:evenodd;stroke:#000000;stroke-width:1px;stroke-linecap:butt;stroke-linejoin:miter;stroke-opacity:1"
       d="m 473.39702,240.36469 c -0.54261,-1.08522 -0.0406,-8.5589 0.45902,-10.55751 0.53575,-2.14301 0.22951,-4.8675 0.22951,-7.11485 0,-1.88526 -1.32498,-4.60324 0.45902,-5.04924 1.42935,-0.35734 4.46403,1.81505 5.96729,2.0656 1.64774,0.27462 2.62982,0.17691 3.90169,-0.45903 1.47643,-0.73821 2.35007,-1.44818 3.90169,-1.83608 0.30601,-0.0765 0.61203,-0.15301 0.91804,-0.22952 1.55341,-0.38835 2.90422,-0.85625 4.36072,-1.14755 1.25346,-0.25069 2.84947,0 4.1312,0 1.65597,0 2.14831,0.0338 2.98364,1.14755 1.02619,1.36826 1.24419,3.87753 0.91804,5.50827 -0.0619,0.30931 -0.153,0.61203 -0.22951,0.91805 -0.40286,1.61146 -0.45902,3.2838 -0.45902,5.04924 0,1.98558 0.16491,4.22471 -0.22951,6.1968 -0.29763,1.48815 -0.75181,1.75297 -2.29511,2.52462 -1.76422,0.88211 -3.53966,1.11443 -5.50827,1.60658 -1.79842,0.44961 -3.57475,0.72156 -5.27875,1.14756 -1.39898,0.34974 -2.92713,0.67911 -4.36071,0.91804 -1.81674,0.30279 -3.47353,0.91805 -5.50827,0.91805 -0.91805,0 -1.83609,0 -2.75414,0"
       id="path8843"
       inkscape:connector-curvature="0" />
    <path
       style="fill:none;stroke:#000000;stroke-width:7.08661413;stroke-linecap:butt;stroke-linejoin:miter;stroke-miterlimit:4;stroke-opacity:1;stroke-dasharray:none"
       d="m 441.03595,218.79064 c 0.58027,-1.22255 1.78946,-2.3749 3.21316,-3.44266 2.21063,-1.65797 5.24282,-2.64796 7.80338,-3.67218 2.32631,-0.93052 4.38711,-1.60658 6.88534,-1.60658 1.90933,0 3.67808,1.03575 5.27875,1.83609 2.00413,1.00206 4.18269,2.24449 5.96729,3.67218 2.23924,1.79139 5.67605,3.20286 8.49191,3.67217 3.76458,0.62743 6.7031,0.29026 10.328,-0.91804 3.01989,-1.00663 6.03721,-1.81815 8.95094,-2.98364 1.21254,-0.48502 2.81725,-1.32314 3.67217,-1.83609"
       id="path8792"
       inkscape:connector-curvature="0" />
    <path
       style="fill:#00ff00;fill-rule:evenodd;stroke:#000000;stroke-width:1px;stroke-linecap:butt;stroke-linejoin:miter;stroke-opacity:1"
       d="m 501.39738,239.44664 c -0.31121,-1.24482 -0.99862,-1.87332 -2.98365,-1.37707 -1.90346,0.47587 -3.60663,0.90166 -5.50826,1.37707 -1.42097,0.35524 -2.97655,0.34249 -4.36072,0.68853 -1.57443,0.39361 -3.89598,-0.11332 -5.27875,-0.45902 -1.45827,-0.36457 -3.12721,0.13624 -4.59022,-0.22951 -1.26069,-0.31517 -2.75391,0.17208 -3.90169,0.45902 -0.14844,0.0371 -0.30602,0 -0.45903,0 -1.28049,0 -1.71021,2.78372 -2.0656,3.67218 -0.69488,1.73721 -0.67069,4.05984 -1.14755,5.96729 -0.44476,1.77904 -0.22951,3.87768 -0.22951,5.73778 0,1.76517 0.50114,2.13579 1.14755,3.21315 0.63979,1.06631 1.4925,1.72201 2.29511,2.52463 1.58319,1.58319 3.72049,2.43402 5.73778,3.44266 2.24545,1.12273 5.83795,1.52416 8.2624,0.91805 2.38031,-0.59508 4.44551,-0.18859 6.42631,-1.37707 1.1822,-0.70932 2.04394,-3.159 2.52463,-4.36071 0.70539,-1.76349 2.33606,-3.14745 2.75413,-4.81973 0.49629,-1.98518 -0.30692,-4.73962 0.22951,-6.88534 0.53469,-2.13874 0.70586,-3.70682 1.60658,-5.50826 0.3705,-0.74101 -0.23397,-2.42102 -0.45902,-2.98365 z"
       id="path8847"
       inkscape:connector-curvature="0" />
    <path
       style="fill:#ffff00;fill-rule:evenodd;stroke:#000000;stroke-width:1px;stroke-linecap:butt;stroke-linejoin:miter;stroke-opacity:1"
       d="m 471.56093,248.8566 c -1.38554,0 0.45902,-2.74566 0.45902,-4.1312 0,-1.90091 -0.75361,-3.365 -1.37707,-4.81973 -0.6334,-1.47794 -1.79955,-1.72968 -3.21315,-2.29512 -1.05729,-0.42291 -2.54226,-1.52535 -3.44267,-2.0656 -1.24986,-0.74991 -2.8652,-1.23788 -4.36071,-1.83608 -1.58231,-0.63293 -3.03603,-1.02033 -4.81973,-1.37707 -1.47405,-0.29481 -2.4169,0.7744 -3.21316,1.83609 -0.63905,0.85206 -2.32588,1.62196 -3.21316,2.0656 -1.55349,0.77674 -2.9932,1.84564 -3.90168,2.75413 -1.22871,1.2287 -1.99439,2.84121 -2.75415,4.36071 -0.91914,1.83829 -1.42541,3.22538 -1.83609,5.27876 -0.28212,1.4106 -0.12068,3.18942 0.22951,4.59022 0.37941,1.51761 0.54932,2.93473 1.14756,4.1312 0.43654,0.87308 2.20008,1.1238 3.21317,1.37707 1.56687,0.39172 2.87883,0.91804 3.90168,0.91804 0.82468,0 2.08199,-1.15575 2.98365,-1.60658 1.73379,-0.86689 3.00174,-1.702 4.81973,-2.0656 1.04335,-0.20867 3.37872,0.98427 4.36071,1.37707 1.25477,0.50191 3.02405,0.19169 4.36072,0.45902 1.54128,0.30826 2.50657,1.36624 3.67217,2.0656 1.87843,1.12706 3.92088,0.29631 4.59023,-1.37706 0.84501,-2.11253 -0.1616,-5.46612 -0.68854,-7.57387 -0.3377,-1.35082 -0.0672,-0.64756 -0.91804,-2.0656 z"
       id="path8845"
       inkscape:connector-curvature="0" />
    <path
       style="fill:none;stroke:#000000;stroke-width:7.08661413;stroke-linecap:butt;stroke-linejoin:miter;stroke-miterlimit:4;stroke-opacity:1;stroke-dasharray:none"
       d="m 441.49497,264.30867 c 0.58027,-1.22255 1.78946,-2.3749 3.21316,-3.44267 2.21063,-1.65796 5.24282,-2.64795 7.80338,-3.67218 2.32631,-0.93052 4.38711,-1.60657 6.88534,-1.60657 1.90933,0 3.67808,1.03575 5.27875,1.83609 2.00413,1.00206 4.18269,2.24449 5.96729,3.67217 2.23924,1.7914 5.67605,3.20287 8.49191,3.67218 3.76458,0.62743 6.7031,0.29026 10.328,-0.91804 3.01989,-1.00663 6.03721,-1.81815 8.95094,-2.98365 1.21254,-0.48502 2.81725,-1.32313 3.67217,-1.83609"
       id="path8794"
       inkscape:connector-curvature="0" />
    <path
       style="fill:none;stroke:#000000;stroke-width:7.08661413;stroke-linecap:butt;stroke-linejoin:miter;stroke-miterlimit:4;stroke-opacity:1;stroke-dasharray:none"
       d="m 441.72448,241.58706 c 0.58027,-1.22255 1.78946,-2.3749 3.21316,-3.44267 2.21063,-1.65796 5.24282,-2.64795 7.80338,-3.67218 2.32631,-0.93052 4.38711,-1.60657 6.88534,-1.60657 1.90933,0 3.67808,1.03575 5.27875,1.83609 2.00413,1.00206 4.18269,2.24449 5.96729,3.67217 2.23924,1.7914 5.67605,3.20287 8.49191,3.67218 3.76458,0.62743 6.7031,0.29026 10.328,-0.91804 3.01989,-1.00663 6.03721,-1.81815 8.95094,-2.98365 1.21254,-0.48502 2.81725,-1.32313 3.67217,-1.83609"
       id="path8796"
       inkscape:connector-curvature="0" />
    <path
       style="fill:none;stroke:#000000;stroke-width:7.11408663;stroke-linecap:butt;stroke-linejoin:miter;stroke-miterlimit:4;stroke-opacity:1;stroke-dasharray:none"
       d="m 441.04969,215.82074 0.66105,47.94034"
       id="path8798"
       inkscape:connector-curvature="0" />
    <path
       style="fill:none;stroke:#000000;stroke-width:7.11535168;stroke-linecap:butt;stroke-linejoin:miter;stroke-miterlimit:4;stroke-opacity:1;stroke-dasharray:none"
       d="m 501.41175,210.54262 0.20077,51.84077"
       id="path8800"
       inkscape:connector-curvature="0" />
    <path
       style="fill:none;stroke:#000000;stroke-width:7.08661413;stroke-linecap:butt;stroke-linejoin:miter;stroke-miterlimit:4;stroke-opacity:1;stroke-dasharray:none"
       d="m 471.79045,217.18406 -0.22951,44.75467"
       id="path8802"
       inkscape:connector-curvature="0" />
  </g>
</svg>
