<?xml version="1.0" encoding="UTF-8" standalone="no"?>
<!-- Created with Inkscape (http://www.inkscape.org/) -->

<svg
   xmlns:dc="http://purl.org/dc/elements/1.1/"
   xmlns:cc="http://creativecommons.org/ns#"
   xmlns:rdf="http://www.w3.org/1999/02/22-rdf-syntax-ns#"
   xmlns:svg="http://www.w3.org/2000/svg"
   xmlns="http://www.w3.org/2000/svg"
   xmlns:sodipodi="http://sodipodi.sourceforge.net/DTD/sodipodi-0.dtd"
   xmlns:inkscape="http://www.inkscape.org/namespaces/inkscape"
   width="78.928177"
   height="71.452484"
   id="svg3857"
   version="1.1"
   inkscape:version="0.48.4 r9939"
   sodipodi:docname="New document 11">
  <defs
     id="defs3859" />
  <sodipodi:namedview
     inkscape:document-units="in"
     pagecolor="#ffffff"
     bordercolor="#666666"
     borderopacity="1.0"
     inkscape:pageopacity="0.0"
     inkscape:pageshadow="2"
     inkscape:zoom="0.36"
     inkscape:cx="-184.61094"
     inkscape:cy="-103.21494"
     inkscape:current-layer="layer1"
     id="namedview3861"
     showgrid="false"
     units="in"
     fit-margin-top="0"
     fit-margin-left="0"
     fit-margin-right="0"
     fit-margin-bottom="0"
     inkscape:window-width="513"
     inkscape:window-height="406"
     inkscape:window-x="4"
     inkscape:window-y="139"
     inkscape:window-maximized="0" />
  <metadata
     id="metadata3863">
    <rdf:RDF>
      <cc:Work
         rdf:about="">
        <dc:format>image/svg+xml</dc:format>
        <dc:type
           rdf:resource="http://purl.org/dc/dcmitype/StillImage" />
        <dc:title></dc:title>
      </cc:Work>
    </rdf:RDF>
  </metadata>
  <g
     inkscape:label="Layer 1"
     inkscape:groupmode="layer"
     id="layer1"
     transform="translate(-524.61094,-315.33258)">
    <g
       id="g11412"
       transform="matrix(0.6420392,0.7666718,-0.7666718,0.6420392,1216.7323,-287.5826)">
      <g
         transform="translate(86.986835,35.703551)"
         id="g11406">
        <path
           inkscape:connector-curvature="0"
           style="fill:#ff8080;fill-rule:evenodd;stroke:#000000;stroke-width:1px;stroke-linecap:butt;stroke-linejoin:miter;stroke-opacity:1"
           d="m -30.510308,216.16877 c 1.831036,-3.58685 -0.208402,-7.55751 -1.947466,-11.03564 -1.455417,-2.91083 -4.910244,-6.11422 -7.14071,-9.08818 -2.826463,-3.76861 -4.107773,-7.34291 -5.193244,-11.68479 -1.203783,-4.81513 -1.220671,-7.296 0.649155,-11.03565 0.730883,-1.46176 5.734064,1.83913 6.491555,2.59662 3.128424,3.12843 5.068664,4.29493 7.14071,8.43903 0.08132,0.16264 -0.608973,-9.57661 -1.298311,-12.33396 -1.239781,-4.95912 -0.649155,-11.01707 -0.649155,-16.22889 0,-4.45593 0.366909,-10.33002 1.947466,-14.28142 1.644555,-4.11138 1.711077,-6.37336 5.8424,-8.43902 2.904745,-1.45237 4.832447,-2.19995 8.439021,-1.29831 4.681956,1.17049 8.915551,1.98029 12.3339541,4.54409 3.1273365,2.3455 3.05969375,4.44891 3.8949329,7.78987 0.93694481,3.74777 1.9474664,6.26873 1.9474664,10.38648 0,5.11169 0.6491555,10.33633 0.6491555,15.57973 0,4.1148 -0.3149735,9.69892 -1.2983109,13.63227 -1.25093513,5.00374 -2.8675673,8.79181 -4.5440884,12.98311 -1.40907,3.52267 -1.298311,7.5722 -1.298311,11.6848 0,3.68525 0.6491555,5.14481 0.6491555,8.43902"
           id="path11398"
           transform="translate(-4.149475e-6,698.0315)" />
        <path
           inkscape:connector-curvature="0"
           style="fill:none;stroke:#000000;stroke-width:1px;stroke-linecap:butt;stroke-linejoin:miter;stroke-opacity:1"
           d="m -25.317064,132.42772 c 0,1.2473 0,8.31169 0,12.33395 0,4.47022 0.714493,9.41065 0,12.98311 -0.496949,2.48474 0.609599,8.2808 0.649156,8.43902"
           id="path11400"
           transform="translate(-4.149475e-6,698.0315)" />
        <path
           inkscape:connector-curvature="0"
           style="fill:none;stroke:#000000;stroke-width:1px;stroke-linecap:butt;stroke-linejoin:miter;stroke-opacity:1"
           d="m -13.632265,131.77856 c -0.468188,2.34094 -1.947467,5.77405 -1.947467,10.38649 0,3.39485 0.649156,7.38992 0.649156,11.03564 0,2.93679 -0.131306,6.61549 0.649155,9.73733 0.168114,0.67246 0,1.85226 0,2.59663"
           id="path11402"
           transform="translate(-4.149475e-6,698.0315)" />
        <path
           inkscape:connector-curvature="0"
           style="fill:none;stroke:#000000;stroke-width:1px;stroke-linecap:butt;stroke-linejoin:miter;stroke-opacity:1"
           d="m -3.8949329,136.32265 c 0.9677039,3.87082 -2.5966219,7.69485 -2.5966219,11.6848 0,4.00718 0.6491555,7.1091 0.6491555,11.03564 0,2.22732 0.7220642,6.13404 1.2983109,8.43902"
           id="path11404"
           transform="translate(-4.149475e-6,698.0315)" />
      </g>
    </g>
  </g>
</svg>
