%!PS-Adobe-3.0 EPSF-3.0
%%DocumentNeededResources: font Helvetica
%%+ font Helvetica-Bold
%%+ font Helvetica-Oblique
%%+ font Helvetica-BoldOblique
%%+ font Symbol
%%Title: R Graphics Output
%%Creator: R Software
%%Pages: (atend)
%%BoundingBox: 56 147 556 645
%%EndComments
%%BeginProlog
/bp  { gs gs } def
% begin .ps.prolog
/gs  { gsave } bind def
/gr  { grestore } bind def
/ep  { showpage gr gr } bind def
/m   { moveto } bind def
/l  { rlineto } bind def
/np  { newpath } bind def
/cp  { closepath } bind def
/f   { fill } bind def
/o   { stroke } bind def
/c   { newpath 0 360 arc } bind def
/r   { 4 2 roll moveto 1 copy 3 -1 roll exch 0 exch rlineto 0 rlineto -1 mul 0 exch rlineto closepath } bind def
/p1  { stroke } bind def
/p2  { gsave bg fill grestore newpath } bind def
/p3  { gsave bg fill grestore stroke } bind def
/p6  { gsave bg eofill grestore newpath } bind def
/p7  { gsave bg eofill grestore stroke } bind def
/t   { 5 -2 roll moveto gsave rotate
       1 index stringwidth pop
       mul neg 0 rmoveto show grestore } bind def
/ta  { 4 -2 roll moveto gsave rotate show } bind def
/tb  { 2 -1 roll 0 rmoveto show } bind def
/cl  { grestore gsave newpath 3 index 3 index moveto 1 index
       4 -1 roll lineto  exch 1 index lineto lineto
       closepath clip newpath } bind def
/rgb { setrgbcolor } bind def
/s   { scalefont setfont } bind def
% end   .ps.prolog
%%IncludeResource: font Helvetica
/Helvetica findfont
dup length dict begin
  {1 index /FID ne {def} {pop pop} ifelse} forall
  /Encoding ISOLatin1Encoding def
  currentdict
  end
/Font1 exch definefont pop
%%IncludeResource: font Helvetica-Bold
/Helvetica-Bold findfont
dup length dict begin
  {1 index /FID ne {def} {pop pop} ifelse} forall
  /Encoding ISOLatin1Encoding def
  currentdict
  end
/Font2 exch definefont pop
%%IncludeResource: font Helvetica-Oblique
/Helvetica-Oblique findfont
dup length dict begin
  {1 index /FID ne {def} {pop pop} ifelse} forall
  /Encoding ISOLatin1Encoding def
  currentdict
  end
/Font3 exch definefont pop
%%IncludeResource: font Helvetica-BoldOblique
/Helvetica-BoldOblique findfont
dup length dict begin
  {1 index /FID ne {def} {pop pop} ifelse} forall
  /Encoding ISOLatin1Encoding def
  currentdict
  end
/Font4 exch definefont pop
%%IncludeResource: font Symbol
/Symbol findfont
dup length dict begin
  {1 index /FID ne {def} {pop pop} ifelse} forall
  currentdict
  end
/Font5 exch definefont pop
%%EndProlog
%%Page: 1 1
bp
115.29 220.07 525.51 586.34 cl
/bg { 0.9020 0.9020 0.9804 rgb } def
np
 136.81 237.23 m
50.65 0 l
0 191.89 l
-50.65 0 l
cp p6
0 setgray
2.25 setlinewidth
[] 0 setdash
0 setlinecap
1 setlinejoin
10.00 setmiterlimit
np
136.81 379.95 m
50.65 0 l
o
0.75 setlinewidth
[ 2.25 3.75] 0 setdash
1 setlinecap
np
162.14 233.63 m
0 3.60 l
o
np
162.14 442.08 m
0 -12.96 l
o
0.75 setlinewidth
[] 0 setdash
np
149.47 233.63 m
25.33 0 l
o
np
149.47 442.08 m
25.33 0 l
o
np
136.81 237.23 m
50.65 0 l
0 191.89 l
-50.65 0 l
0 -191.89 l
o
np
 200.12 334.19 m
50.64 0 l
0 152.97 l
-50.64 0 l
cp p6
2.25 setlinewidth
[] 0 setdash
0 setlinecap
np
200.12 395.30 m
50.64 0 l
o
0.75 setlinewidth
[ 2.25 3.75] 0 setdash
1 setlinecap
np
225.44 237.23 m
0 96.96 l
o
np
225.44 501.14 m
0 -13.98 l
o
0.75 setlinewidth
[] 0 setdash
np
212.78 237.23 m
25.32 0 l
o
np
212.78 501.14 m
25.32 0 l
o
np
200.12 334.19 m
50.64 0 l
0 152.97 l
-50.64 0 l
0 -152.97 l
o
np
 263.43 286.31 m
50.64 0 l
0 206.80 l
-50.64 0 l
cp p6
2.25 setlinewidth
[] 0 setdash
0 setlinecap
np
263.43 397.65 m
50.64 0 l
o
0.75 setlinewidth
[ 2.25 3.75] 0 setdash
1 setlinecap
np
288.75 237.23 m
0 49.08 l
o
np
288.75 532.83 m
0 -39.72 l
o
0.75 setlinewidth
[] 0 setdash
np
276.09 237.23 m
25.32 0 l
o
np
276.09 532.83 m
25.32 0 l
o
np
263.43 286.31 m
50.64 0 l
0 206.80 l
-50.64 0 l
0 -206.80 l
o
np
 326.73 296.74 m
50.65 0 l
0 223.80 l
-50.65 0 l
cp p6
2.25 setlinewidth
[] 0 setdash
0 setlinecap
np
326.73 408.26 m
50.65 0 l
o
0.75 setlinewidth
[ 2.25 3.75] 0 setdash
1 setlinecap
np
352.05 237.23 m
0 59.51 l
o
np
352.05 533.36 m
0 -12.82 l
o
0.75 setlinewidth
[] 0 setdash
np
339.39 237.23 m
25.32 0 l
o
np
339.39 533.36 m
25.32 0 l
o
np
326.73 296.74 m
50.65 0 l
0 223.80 l
-50.65 0 l
0 -223.80 l
o
np
 390.04 378.30 m
50.64 0 l
0 163.09 l
-50.64 0 l
cp p6
2.25 setlinewidth
[] 0 setdash
0 setlinecap
np
390.04 476.07 m
50.64 0 l
o
0.75 setlinewidth
[ 2.25 3.75] 0 setdash
1 setlinecap
np
415.36 237.23 m
0 141.07 l
o
np
415.36 560.48 m
0 -19.09 l
o
0.75 setlinewidth
[] 0 setdash
np
402.70 237.23 m
25.32 0 l
o
np
402.70 560.48 m
25.32 0 l
o
np
390.04 378.30 m
50.64 0 l
0 163.09 l
-50.64 0 l
0 -163.09 l
o
np
 453.34 392.90 m
50.65 0 l
0 179.51 l
-50.65 0 l
cp p6
2.25 setlinewidth
[] 0 setdash
0 setlinecap
np
453.34 502.03 m
50.65 0 l
o
0.75 setlinewidth
[ 2.25 3.75] 0 setdash
1 setlinecap
np
478.66 237.23 m
0 155.67 l
o
np
478.66 572.77 m
0 -0.36 l
o
0.75 setlinewidth
[] 0 setdash
np
466.00 237.23 m
25.32 0 l
o
np
466.00 572.77 m
25.32 0 l
o
np
453.34 392.90 m
50.65 0 l
0 179.51 l
-50.65 0 l
0 -179.51 l
o
56.25 146.63 555.75 645.38 cl
0 setgray
0.75 setlinewidth
[] 0 setdash
1 setlinecap
1 setlinejoin
10.00 setmiterlimit
np
162.14 220.07 m
316.52 0 l
o
np
162.14 220.07 m
0 -7.19 l
o
np
225.44 220.07 m
0 -7.19 l
o
np
288.75 220.07 m
0 -7.19 l
o
np
352.05 220.07 m
0 -7.19 l
o
np
415.36 220.07 m
0 -7.19 l
o
np
478.66 220.07 m
0 -7.19 l
o
/Font1 findfont 12 s
162.14 194.14 (00) .5 0 t
225.44 194.14 (05) .5 0 t
288.75 194.14 (07) .5 0 t
352.05 194.14 (26) .5 0 t
415.36 194.14 (35) .5 0 t
478.66 194.14 (72) .5 0 t
np
115.29 237.23 m
0 266.26 l
o
np
115.29 237.23 m
-7.20 0 l
o
np
115.29 325.98 m
-7.20 0 l
o
np
115.29 414.74 m
-7.20 0 l
o
np
115.29 503.49 m
-7.20 0 l
o
98.01 237.23 (0.0) .5 90 t
98.01 325.98 (0.2) .5 90 t
98.01 414.74 (0.4) .5 90 t
98.01 503.49 (0.6) .5 90 t
56.25 146.63 555.75 645.38 cl
/Font1 findfont 12 s
0 setgray
250.70 165.35 (Number of added f) 0 ta
-0.360 (eatures) tb gr
69.21 403.20 (Kappa) .5 90 t
56.25 146.63 555.75 645.38 cl
0 setgray
0.75 setlinewidth
[] 0 setdash
1 setlinecap
1 setlinejoin
10.00 setmiterlimit
np
115.29 220.07 m
410.22 0 l
0 366.28 l
-410.22 0 l
0 -366.28 l
o
ep
%%Trailer
%%Pages: 1
%%EOF
